<?xml version="1.0" encoding="utf-8"?>
<!-- Generator: Adobe Illustrator 23.0.0, SVG Export Plug-In . SVG Version: 6.00 Build 0)  -->
<svg version="1.1" id="Layer_1" xmlns="http://www.w3.org/2000/svg" xmlns:xlink="http://www.w3.org/1999/xlink" x="0px" y="0px"
	 viewBox="0 0 24 24" style="enable-background:new 0 0 24 24;" xml:space="preserve">
<style type="text/css">
	.st0{opacity:0.3;fill:#FFFFFF;}
	.st1{fill:none;}
	.st2{fill:#666666;}
</style>
<rect class="st0" width="24" height="24"/>
<path class="st1" d="M-4.5-4h34.2v35H-4.5V-4z"/>
<circle class="st2" cx="12" cy="7.3" r="5.7"/>
<path class="st2" d="M21.1,22v2H2.9c0-0.1,0-0.2,0-0.2v-1.9c0-4.7,6-7.2,9-7.2C14.8,14.6,20.8,17.1,21.1,22z"/>
</svg>
